ExtractionDate,orderId,origin,affiliateId,salesChannel,status,statusDescription,creationDateTime,lastChangeDateTime,authorizedDateTime,invoicedDateTime,total_Itens,total_Discounts,total_Shipping,total_Tax,items_id,items_quantity,items_price,items_listPrice,items_priceTags_value,items_additionalInfo_brandName,changesAttachment_itemsAdded_reason,changesAttachment_itemsAdded_price,changesAttachment_itemsAdded_quantity,changesAttachment_itemsRemoved_reason,changesAttachment_itemsRemoved_price,changesAttachment_itemsRemoved_quantity,marketingData_utmSource,marketingData_utmMedium,marketingData_utmCampaign,shippingData_address_country,shippingData_address_state,shippingData_address_city,shippingData_address_street,shippingData_address_postalCode,shippingData_logisticsInfo_itemIndex,shippingData_logisticsInfo_price,shippingData_logisticsInfo_shippingEstimate,shippingData_logisticsInfo_shippingEstimateDate,shippingData_logisticsInfo_listPrice,shippingData_logisticsInfo_selectedSla,shippingData_logisticsInfo_deliveryCompany,paymentData_giftCards_value,paymentData_giftCards_balance,paymentData_payments_id,paymentData_payments_paymentSystemName,paymentData_payments_value,paymentData_payments_installments
2022-08-22,v2794007lbll-01,Marketplace,,1,invoiced,Faturado,2022-01-25T11:50:09.5170840+00:00,2022-01-26T13:19:56.8006511+00:00,2022-01-25T11:50:17.1073311+00:00,2022-01-26T13:19:55.2366434+00:00,229.99,-171.34,0.0,0.0,50416,1,229.99,229.99,-171.34,LABELLAMAFIA,,0,,,0,,,,,BRA,RJ,São Gonçalo,Rua da Alvorada,24731-200,0,0.0,10bd,2022-02-08T11:50:23.4975865+00:00,20.25,Normal,Correios - PAC,0,0,8BC619D7BC664BE8A4032AF41D06ABF0,Mastercard,"58,65",2
2022-08-22,v2794003lbll-01,Marketplace,,1,invoiced,Faturado,2022-01-25T11:43:34.9570108+00:00,2022-01-26T14:43:56.2184806+00:00,2022-01-25T11:43:43.1883098+00:00,2022-01-26T14:43:56.0259855+00:00,574.98,-244.49,0.0,0.0,49341,1,179.99,179.99,-125.99,LABELLAMAFIA,,0,,,0,,social ads,social,[LBM] [ECOMM] [SUMMER SALE] [NOVOS] [12.01.2021],BRA,MG,Juiz de Fora,Rua Olegário Maciel,36015-350,0,0.0,8bd,2022-02-04T11:43:49.2078617+00:00,2.78,CARRIERS,Carriers,0,0,BFAB69D74FDA407EA4569711352AEF51,Elo,"330,49",5
2022-08-22,v2794003lbll-01,Marketplace,,1,invoiced,Faturado,2022-01-25T11:43:34.9570108+00:00,2022-01-26T14:43:56.2184806+00:00,2022-01-25T11:43:43.1883098+00:00,2022-01-26T14:43:56.0259855+00:00,574.98,-244.49,0.0,0.0,54525,1,394.99,394.99,-118.5,LABELLAMAFIA,,0,,,0,,social ads,social,[LBM] [ECOMM] [SUMMER SALE] [NOVOS] [12.01.2021],BRA,MG,Juiz de Fora,Rua Olegário Maciel,36015-350,1,0.0,8bd,2022-02-04T11:43:49.2078617+00:00,9.39,CARRIERS,Carriers,0,0,BFAB69D74FDA407EA4569711352AEF51,Elo,"330,49",5
2022-08-22,v2794001lbll-01,Marketplace,,1,invoiced,Faturado,2022-01-25T11:39:44.2547516+00:00,2022-01-26T15:14:00.3206009+00:00,2022-01-25T11:39:51.5350954+00:00,2022-01-26T15:14:00.2268779+00:00,189.99,-141.54,0.0,0.0,45518,1,189.99,189.99,-141.54000000000002,LABELLAMAFIA,,0,,,0,,social,,[LBM] [SUMMER SALE] [RMK] [13.01.2021],BRA,DF,Brasília,Área Especial Área Especial 4 Módulo G,71070-674,0,0.0,7bd,2022-02-03T11:39:56.1376087+00:00,10.09,CARRIERS,Carriers,0,0,18913E0E58F548979D0EF9AF20EA37C2,Mastercard,"48,45",2
2022-08-22,v2793997lbll-01,Marketplace,,1,invoiced,Faturado,2022-01-25T11:34:51.0912983+00:00,2022-01-26T13:20:01.8116460+00:00,2022-01-25T11:34:58.9055655+00:00,2022-01-26T13:19:58.6565862+00:00,379.98,-265.98,9.57,0.0,49339,1,179.99,179.99,-125.99,LABELLAMAFIA,,0,,,0,,,,,BRA,SC,São José,Rua Virgilino Ferreira de Souza,88117700,0,3.39,8bd,2022-02-04T11:35:04.6136746+00:00,3.39,Expresso,Correios - Sedex,0,0,F9F1FD88A74046B49B657BE8500CA9C1,Mastercard,"123,57",4
2022-08-22,v2793997lbll-01,Marketplace,,1,invoiced,Faturado,2022-01-25T11:34:51.0912983+00:00,2022-01-26T13:20:01.8116460+00:00,2022-01-25T11:34:58.9055655+00:00,2022-01-26T13:19:58.6565862+00:00,379.98,-265.98,9.57,0.0,48198,1,199.99,199.99,-139.99,LABELLAMAFIA,,0,,,0,,,,,BRA,SC,São José,Rua Virgilino Ferreira de Souza,88117700,1,6.18,8bd,2022-02-04T11:35:04.6136746+00:00,6.18,Expresso,Correios - Sedex,0,0,F9F1FD88A74046B49B657BE8500CA9C1,Mastercard,"123,57",4
2022-08-22,v2793993lbll-01,Marketplace,,1,invoiced,Faturado,2022-01-25T11:21:38.7601964+00:00,2022-01-26T14:58:58.1308673+00:00,2022-01-25T11:21:46.8436788+00:00,2022-01-26T14:58:56.4224416+00:00,179.99,-125.99,12.15,0.0,45522,1,179.99,179.99,-125.99,LABELLAMAFIA,,0,,,0,,,,,BRA,ES,Vila Velha,Rua Ceará,29101-291,0,12.15,9bd,2022-02-07T11:21:51.5199116+00:00,12.15,CARRIERS,Carriers,0,0,619D0AAC85FB4D369E642FB90FCFFD73,Mastercard,"66,15",1
2022-08-22,v2793971lbll-01,Marketplace,,1,invoiced,Faturado,2022-01-25T11:06:19.7728438+00:00,2022-01-26T11:52:54.8950974+00:00,2022-01-25T11:07:05.0000000+00:00,2022-01-26T11:52:54.5895990+00:00,629.97,-306.05,0.0,0.0,51720,1,189.99,189.99,-99.75,LABELLAMAFIA,,0,,,0,,google,search,branding,BRA,RS,Campo Bom,Avenida dos municípios,93700-000,0,0.0,11bd,2022-02-09T11:07:08.7665559+00:00,5.98,Normal,Correios - PAC,0,0,AD2313608B6D439D96E5980573BD3C23,Pix,"323,92",1
2022-08-22,v2793971lbll-01,Marketplace,,1,invoiced,Faturado,2022-01-25T11:06:19.7728438+00:00,2022-01-26T11:52:54.8950974+00:00,2022-01-25T11:07:05.0000000+00:00,2022-01-26T11:52:54.5895990+00:00,629.97,-306.05,0.0,0.0,51277,1,309.99,309.99,-162.75,LABELLAMAFIA,,0,,,0,,google,search,branding,BRA,RS,Campo Bom,Avenida dos municípios,93700-000,1,0.0,11bd,2022-02-09T11:07:08.7665559+00:00,9.01,Normal,Correios - PAC,0,0,AD2313608B6D439D96E5980573BD3C23,Pix,"323,92",1
2022-08-22,v2793971lbll-01,Marketplace,,1,invoiced,Faturado,2022-01-25T11:06:19.7728438+00:00,2022-01-26T11:52:54.8950974+00:00,2022-01-25T11:07:05.0000000+00:00,2022-01-26T11:52:54.5895990+00:00,629.97,-306.05,0.0,0.0,56104,1,129.99,129.99,-43.55,LABELLAMAFIA,,0,,,0,,google,search,branding,BRA,RS,Campo Bom,Avenida dos municípios,93700-000,2,0.0,11bd,2022-02-09T11:07:08.7665559+00:00,3.08,Normal,Correios - PAC,0,0,AD2313608B6D439D96E5980573BD3C23,Pix,"323,92",1
2022-08-22,v2793969lbll-01,Marketplace,,1,invoiced,Faturado,2022-01-25T11:03:53.5463666+00:00,2022-01-26T13:22:59.0355799+00:00,2022-01-25T11:04:01.6303641+00:00,2022-01-26T13:22:56.2641804+00:00,249.99,-75.0,21.63,0.0,55389,1,249.99,249.99,-75.0,LABELLAMAFIA,,0,,,0,,,,,BRA,RS,Não-Me-Toque,RUA CORONEL ALBERTO SCHMITT,99470-000,0,21.63,12bd,2022-02-10T11:04:06.2668847+00:00,21.63,Normal,Correios - PAC,0,0,F20056179A6B47F7B46D1C5F47A611AF,Mastercard,"196,62",4
2022-08-22,v2793966lbll-01,Marketplace,,3,invoiced,Faturado,2022-01-25T10:59:19.3887003+00:00,2022-01-26T16:49:56.2441323+00:00,2022-01-25T10:59:28.8308941+00:00,2022-01-26T16:49:54.9150523+00:00,144.99,-92.79,0.0,0.0,47763,1,144.99,144.99,-92.78999999999999,LAMAFIA,,0,,,0,,,,,BRA,MG,Itabira,Avenida João Pinheiro,35900-539,0,0.0,11bd,2022-02-09T10:59:32.3869540+00:00,9.59,CARRIERS,Carriers,0,0,485DE3C8CF4A4D00A77E56E6B727F743,Visa,"52,20",2
2022-08-22,v2793962lbll-01,Marketplace,,1,invoiced,Faturado,2022-01-25T10:54:11.1797944+00:00,2022-01-26T12:34:58.1162882+00:00,2022-01-25T10:54:19.7985390+00:00,2022-01-26T12:34:57.2582440+00:00,1249.95,-739.12,0.0,0.0,48198,1,199.99,199.99,-148.99,LABELLAMAFIA,,0,,,0,,google,search,branding,BRA,MA,Capinzal do Norte,malaquias pereira,65735-000,0,0.0,18bd,2022-02-18T10:54:24.6231788+00:00,11.37,Normal,Correios - PAC,0,0,25FC5EC481B74641A7943B8FF00C72A8,Mastercard,"510,83",5
2022-08-22,v2793962lbll-01,Marketplace,,1,invoiced,Faturado,2022-01-25T10:54:11.1797944+00:00,2022-01-26T12:34:58.1162882+00:00,2022-01-25T10:54:19.7985390+00:00,2022-01-26T12:34:57.2582440+00:00,1249.95,-739.12,0.0,0.0,51029,1,349.99,349.99,-201.24,LABELLAMAFIA,,0,,,0,,google,search,branding,BRA,MA,Capinzal do Norte,malaquias pereira,65735-000,1,0.0,18bd,2022-02-18T10:54:24.6231788+00:00,7.44,Normal,Correios - PAC,0,0,25FC5EC481B74641A7943B8FF00C72A8,Mastercard,"510,83",5
2022-08-22,v2793962lbll-01,Marketplace,,1,invoiced,Faturado,2022-01-25T10:54:11.1797944+00:00,2022-01-26T12:34:58.1162882+00:00,2022-01-25T10:54:19.7985390+00:00,2022-01-26T12:34:57.2582440+00:00,1249.95,-739.12,0.0,0.0,57725,1,99.99,99.99,-40.5,LABELLAMAFIA,,0,,,0,,google,search,branding,BRA,MA,Capinzal do Norte,malaquias pereira,65735-000,2,0.0,18bd,2022-02-18T10:54:24.6231788+00:00,9.14,Normal,Correios - PAC,0,0,25FC5EC481B74641A7943B8FF00C72A8,Mastercard,"510,83",5
2022-08-22,v2793962lbll-01,Marketplace,,1,invoiced,Faturado,2022-01-25T10:54:11.1797944+00:00,2022-01-26T12:34:58.1162882+00:00,2022-01-25T10:54:19.7985390+00:00,2022-01-26T12:34:57.2582440+00:00,1249.95,-739.12,0.0,0.0,47409,1,309.99,309.99,-230.94,LABELLAMAFIA,,0,,,0,,google,search,branding,BRA,MA,Capinzal do Norte,malaquias pereira,65735-000,3,0.0,18bd,2022-02-18T10:54:24.6231788+00:00,23.41,Normal,Correios - PAC,0,0,25FC5EC481B74641A7943B8FF00C72A8,Mastercard,"510,83",5
2022-08-22,v2793962lbll-01,Marketplace,,1,invoiced,Faturado,2022-01-25T10:54:11.1797944+00:00,2022-01-26T12:34:58.1162882+00:00,2022-01-25T10:54:19.7985390+00:00,2022-01-26T12:34:57.2582440+00:00,1249.95,-739.12,0.0,0.0,50218,1,289.99,289.99,-117.45,LABELLAMAFIA,,0,,,0,,google,search,branding,BRA,MA,Capinzal do Norte,malaquias pereira,65735-000,4,0.0,18bd,2022-02-18T10:54:24.6231788+00:00,8.99,Normal,Correios - PAC,0,0,25FC5EC481B74641A7943B8FF00C72A8,Mastercard,"510,83",5
2022-08-22,v2793957lbll-01,Marketplace,,1,invoiced,Faturado,2022-01-25T10:43:41.7326989+00:00,2022-01-26T13:55:56.4682242+00:00,2022-01-25T10:43:50.1238745+00:00,2022-01-26T13:55:55.5684270+00:00,614.98,-353.62,0.0,0.0,51177,1,174.99,174.99,-100.62,LABELLAMAFIA,,0,,,0,,EMAIL,LINK,24/01 - 70% OFF,BRA,SP,Diadema,Rua Coimbra,09910-120,0,0.0,5bd,2022-02-01T10:43:58.0142678+00:00,5.32,CARRIERS,Carriers,0,0,971C1D12A5214A5A93ABCE8042B7525A,Mastercard,"261,36",4
2022-08-22,v2793957lbll-01,Marketplace,,1,invoiced,Faturado,2022-01-25T10:43:41.7326989+00:00,2022-01-26T13:55:56.4682242+00:00,2022-01-25T10:43:50.1238745+00:00,2022-01-26T13:55:55.5684270+00:00,614.98,-353.62,0.0,0.0,51356,1,439.99,439.99,-253.0,LABELLAMAFIA,,0,,,0,,EMAIL,LINK,24/01 - 70% OFF,BRA,SP,Diadema,Rua Coimbra,09910-120,1,0.0,5bd,2022-02-01T10:43:58.0142678+00:00,5.31,CARRIERS,Carriers,0,0,971C1D12A5214A5A93ABCE8042B7525A,Mastercard,"261,36",4
2022-08-22,v2793950lbll-01,Marketplace,,3,invoiced,Faturado,2022-01-25T10:25:46.0117765+00:00,2022-01-26T14:55:58.8047616+00:00,2022-01-25T10:25:53.3716156+00:00,2022-01-26T14:55:58.2178080+00:00,154.99,-77.5,10.34,0.0,47790,1,154.99,154.99,-77.5,LAMAFIA,,0,,,0,,socialads,conversao,[STREETWEAR] [H] [20- 50 ANOS],BRA,RS,Porto Alegre,Rua Bertholdo Mário Thebich,90245-120,0,10.34,8bd,2022-02-04T10:25:58.4843258+00:00,10.34,CARRIERS,Carriers,0,0,959DB21E028B43589581BEC4A9D260FB,Mastercard,"87,83",4
2022-08-22,v2793946lbll-01,Marketplace,,5,invoiced,Faturado,2022-01-25T10:24:07.8217487+00:00,2022-01-26T15:25:55.6768971+00:00,2022-01-25T10:24:14.7652789+00:00,2022-01-26T15:25:55.0561553+00:00,155.0,-108.5,9.28,0.0,47407,1,155.0,155.0,-108.5,LABELLAMAFIA,,0,,,0,,,,,BRA,MG,Belo Horizonte,Rua Frei Cipriano,31250-380,0,9.28,7bd,2022-02-03T10:24:19.3352798+00:00,9.28,CARRIERS,Carriers,0,0,6E6200E7F3EA4387B9A11F676CF738DD,Visa,"55,78",2
2022-08-22,v2793938lbll-01,Marketplace,,1,invoiced,Faturado,2022-01-25T10:22:12.1376540+00:00,2022-01-26T17:34:58.0508276+00:00,2022-01-25T10:22:22.2193011+00:00,2022-01-26T17:34:57.9207426+00:00,1204.94,-579.8,0.0,0.0,52122,1,169.99,169.99,-102.0,LABELLAMAFIA,,0,,,0,,google,search,branding,BRA,ES,Vila Velha,Rua da Amoreira,29101610,0,0.0,9bd,2022-02-07T10:22:28.7346394+00:00,1.23,CARRIERS,Carriers,0,0,8F66150FAC5B41D19A90B98AE745328A,Mastercard,"625,14",6
2022-08-22,v2793938lbll-01,Marketplace,,1,invoiced,Faturado,2022-01-25T10:22:12.1376540+00:00,2022-01-26T17:34:58.0508276+00:00,2022-01-25T10:22:22.2193011+00:00,2022-01-26T17:34:57.9207426+00:00,1204.94,-579.8,0.0,0.0,53045,1,119.99,119.99,-52.8,LABELLAMAFIA,,0,,,0,,google,search,branding,BRA,ES,Vila Velha,Rua da Amoreira,29101610,1,0.0,9bd,2022-02-07T10:22:28.7346394+00:00,2.87,CARRIERS,Carriers,0,0,8F66150FAC5B41D19A90B98AE745328A,Mastercard,"625,14",6
2022-08-22,v2793938lbll-01,Marketplace,,1,invoiced,Faturado,2022-01-25T10:22:12.1376540+00:00,2022-01-26T17:34:58.0508276+00:00,2022-01-25T10:22:22.2193011+00:00,2022-01-26T17:34:57.9207426+00:00,1204.94,-579.8,0.0,0.0,51121,1,139.99,139.99,-84.0,LABELLAMAFIA,,0,,,0,,google,search,branding,BRA,ES,Vila Velha,Rua da Amoreira,29101610,2,0.0,9bd,2022-02-07T10:22:28.7346394+00:00,10.17,CARRIERS,Carriers,0,0,8F66150FAC5B41D19A90B98AE745328A,Mastercard,"625,14",6
2022-08-22,v2793938lbll-01,Marketplace,,1,invoiced,Faturado,2022-01-25T10:22:12.1376540+00:00,2022-01-26T17:34:58.0508276+00:00,2022-01-25T10:22:22.2193011+00:00,2022-01-26T17:34:57.9207426+00:00,1204.94,-579.8,0.0,0.0,50651,1,219.99,219.99,-96.8,LABELLAMAFIA,,0,,,0,,google,search,branding,BRA,ES,Vila Velha,Rua da Amoreira,29101610,3,0.0,9bd,2022-02-07T10:22:28.7346394+00:00,0.95,CARRIERS,Carriers,0,0,8F66150FAC5B41D19A90B98AE745328A,Mastercard,"625,14",6
2022-08-22,v2793938lbll-01,Marketplace,,1,invoiced,Faturado,2022-01-25T10:22:12.1376540+00:00,2022-01-26T17:34:58.0508276+00:00,2022-01-25T10:22:22.2193011+00:00,2022-01-26T17:34:57.9207426+00:00,1204.94,-579.8,0.0,0.0,56146,1,299.99,299.99,-132.0,LABELLAMAFIA,,0,,,0,,google,search,branding,BRA,ES,Vila Velha,Rua da Amoreira,29101610,4,0.0,9bd,2022-02-07T10:22:28.7346394+00:00,1.43,CARRIERS,Carriers,0,0,8F66150FAC5B41D19A90B98AE745328A,Mastercard,"625,14",6
2022-08-22,v2793938lbll-01,Marketplace,,1,invoiced,Faturado,2022-01-25T10:22:12.1376540+00:00,2022-01-26T17:34:58.0508276+00:00,2022-01-25T10:22:22.2193011+00:00,2022-01-26T17:34:57.9207426+00:00,1204.94,-579.8,0.0,0.0,50390,1,254.99,254.99,-112.2,LABELLAMAFIA,,0,,,0,,google,search,branding,BRA,ES,Vila Velha,Rua da Amoreira,29101610,5,0.0,9bd,2022-02-07T10:22:28.7346394+00:00,1.65,CARRIERS,Carriers,0,0,8F66150FAC5B41D19A90B98AE745328A,Mastercard,"625,14",6
2022-08-22,v2793928lbll-01,Marketplace,,3,invoiced,Faturado,2022-01-25T10:09:53.1019191+00:00,2022-01-26T16:37:58.4077060+00:00,2022-01-25T10:10:02.5765223+00:00,2022-01-26T16:37:55.9062330+00:00,299.98,-119.0,11.21,0.0,52759,1,144.99,144.99,-72.5,LAMAFIA,,0,,,0,,socialads,conversao,[STREETWEAR] [H] [20- 50 ANOS],BRA,RS,Porto Alegre,Rua Bertholdo Mário Thebich,90245-120,0,5.9,8bd,2022-02-04T10:10:08.8179300+00:00,5.9,CARRIERS,Carriers,0,0,546255ED37FA482A8D73F1D1A5B67D36,Mastercard,"192,19",6
2022-08-22,v2793928lbll-01,Marketplace,,3,invoiced,Faturado,2022-01-25T10:09:53.1019191+00:00,2022-01-26T16:37:58.4077060+00:00,2022-01-25T10:10:02.5765223+00:00,2022-01-26T16:37:55.9062330+00:00,299.98,-119.0,11.21,0.0,53033,1,154.99,154.99,-46.5,LAMAFIA,,0,,,0,,socialads,conversao,[STREETWEAR] [H] [20- 50 ANOS],BRA,RS,Porto Alegre,Rua Bertholdo Mário Thebich,90245-120,1,5.31,8bd,2022-02-04T10:10:08.8335328+00:00,5.31,CARRIERS,Carriers,0,0,546255ED37FA482A8D73F1D1A5B67D36,Mastercard,"192,19",6
2022-08-22,v2793920lbll-01,Marketplace,,1,invoiced,Faturado,2022-01-25T10:07:10.5686807+00:00,2022-01-26T15:22:57.5041090+00:00,2022-01-25T10:07:19.5229145+00:00,2022-01-26T15:22:57.4556652+00:00,364.99,-182.5,11.6,0.0,51050,1,364.99,364.99,-182.5,LABELLAMAFIA,,0,,,0,,,,,BRA,RS,Viamão,Rua Taquari,94435-680,0,11.6,7bd,2022-02-03T10:07:26.0392181+00:00,11.6,CARRIERS,Carriers,0,0,A35B87FE18C84511A1324E75501F012C,Mastercard,"194,09",6
2022-08-22,v2793918lbll-01,Marketplace,,1,invoiced,Faturado,2022-01-25T10:05:27.7283519+00:00,2022-01-26T17:04:57.6319939+00:00,2022-01-25T10:05:38.2832646+00:00,2022-01-26T17:04:55.3432388+00:00,799.98,-559.98,0.0,0.0,48698,1,399.99,399.99,-279.99,LABELLAMAFIA,,0,,,0,,,,,BRA,RS,Garibaldi,rua Florinda somacal,95720-000,0,0.0,8bd,2022-02-04T10:05:43.4288382+00:00,11.54,CARRIERS,Carriers,0,0,572685EC3218433AABAC3F5A0CF0572B,Mastercard,"240,00",6
2022-08-22,v2793918lbll-01,Marketplace,,1,invoiced,Faturado,2022-01-25T10:05:27.7283519+00:00,2022-01-26T17:04:57.6319939+00:00,2022-01-25T10:05:38.2832646+00:00,2022-01-26T17:04:55.3432388+00:00,799.98,-559.98,0.0,0.0,48685,1,399.99,399.99,-279.99,LABELLAMAFIA,,0,,,0,,,,,BRA,RS,Garibaldi,rua Florinda somacal,95720-000,1,0.0,8bd,2022-02-04T10:05:43.4444418+00:00,2.56,CARRIERS,Carriers,0,0,572685EC3218433AABAC3F5A0CF0572B,Mastercard,"240,00",6
2022-08-22,v2793912lbll-01,Marketplace,,1,invoiced,Faturado,2022-01-25T09:53:09.9775273+00:00,2022-01-26T13:37:58.3578845+00:00,2022-01-25T09:53:19.1303962+00:00,2022-01-26T13:37:58.1133399+00:00,309.99,-216.99,11.46,0.0,47410,1,309.99,309.99,-216.99,LABELLAMAFIA,,0,,,0,,google,search,branding,BRA,DF,Brasília,Quadra QNP 20 Conjunto K,72233-011,0,11.46,8bd,2022-02-04T09:53:23.1423605+00:00,11.46,CARRIERS,Carriers,0,0,B0A170DE3B6649CDB20EE7E00425CEEF,Visa,"104,46",2
2022-08-22,v2793910lbll-01,Marketplace,,1,invoiced,Faturado,2022-01-25T09:40:06.0239234+00:00,2022-01-26T15:22:56.2579998+00:00,2022-01-25T09:40:15.1798530+00:00,2022-01-26T15:22:56.0617133+00:00,189.99,-141.54,0.0,0.0,45518,1,189.99,189.99,-141.54000000000002,LABELLAMAFIA,,0,,,0,,socialads,conversao,[ADD TO CART 7D] [MULHER],BRA,SP,São Paulo,Rua Barão de Duprat,01023-001,0,0.0,5bd,2022-02-01T09:40:20.2089778+00:00,7.27,CARRIERS,Carriers,0,0,477860E2BFBA4EA8BEAF4A4814CDD15A,Mastercard,"48,45",2
2022-08-22,v2793873lbll-01,Marketplace,,1,invoiced,Faturado,2022-01-25T05:21:39.3342237+00:00,2022-01-26T17:34:59.2808857+00:00,2022-01-25T05:21:46.3085033+00:00,2022-01-26T17:34:59.2340117+00:00,1858.94,-1228.98,0.0,0.0,48683,1,399.99,399.99,-303.99,LABELLAMAFIA,,0,,,0,,EMAIL,LINK,24/01 - 70% OFF,BRA,MG,Igarapé,Rua Vereador Ziquita,32900-000,0,0.0,8bd,2022-02-04T05:21:51.7776871+00:00,1.88,CARRIERS,Carriers,0,0,EB33B5F2ACB64896AFB351FDE35717DF,Mastercard,"629,96",3
2022-08-22,v2793873lbll-01,Marketplace,,1,invoiced,Faturado,2022-01-25T05:21:39.3342237+00:00,2022-01-26T17:34:59.2808857+00:00,2022-01-25T05:21:46.3085033+00:00,2022-01-26T17:34:59.2340117+00:00,1858.94,-1228.98,0.0,0.0,47403,1,309.99,309.99,-235.59,LABELLAMAFIA,,0,,,0,,EMAIL,LINK,24/01 - 70% OFF,BRA,MG,Igarapé,Rua Vereador Ziquita,32900-000,1,0.0,8bd,2022-02-04T05:21:51.7776871+00:00,5.35,CARRIERS,Carriers,0,0,EB33B5F2ACB64896AFB351FDE35717DF,Mastercard,"629,96",3
2022-08-22,v2793873lbll-01,Marketplace,,1,invoiced,Faturado,2022-01-25T05:21:39.3342237+00:00,2022-01-26T17:34:59.2808857+00:00,2022-01-25T05:21:46.3085033+00:00,2022-01-26T17:34:59.2340117+00:00,1858.94,-1228.98,0.0,0.0,50703,1,268.99,268.99,-161.39999999999998,LABELLAMAFIA,,0,,,0,,EMAIL,LINK,24/01 - 70% OFF,BRA,MG,Igarapé,Rua Vereador Ziquita,32900-000,2,0.0,8bd,2022-02-04T05:21:51.7776871+00:00,4.07,CARRIERS,Carriers,0,0,EB33B5F2ACB64896AFB351FDE35717DF,Mastercard,"629,96",3
2022-08-22,v2793873lbll-01,Marketplace,,1,invoiced,Faturado,2022-01-25T05:21:39.3342237+00:00,2022-01-26T17:34:59.2808857+00:00,2022-01-25T05:21:46.3085033+00:00,2022-01-26T17:34:59.2340117+00:00,1858.94,-1228.98,0.0,0.0,51786,1,289.99,289.99,-174.0,LABELLAMAFIA,,0,,,0,,EMAIL,LINK,24/01 - 70% OFF,BRA,MG,Igarapé,Rua Vereador Ziquita,32900-000,3,0.0,8bd,2022-02-04T05:21:51.7776871+00:00,3.51,CARRIERS,Carriers,0,0,EB33B5F2ACB64896AFB351FDE35717DF,Mastercard,"629,96",3
2022-08-22,v2793873lbll-01,Marketplace,,1,invoiced,Faturado,2022-01-25T05:21:39.3342237+00:00,2022-01-26T17:34:59.2808857+00:00,2022-01-25T05:21:46.3085033+00:00,2022-01-26T17:34:59.2340117+00:00,1858.94,-1228.98,0.0,0.0,52062,1,289.99,289.99,-174.0,LABELLAMAFIA,,0,,,0,,EMAIL,LINK,24/01 - 70% OFF,BRA,MG,Igarapé,Rua Vereador Ziquita,32900-000,4,0.0,8bd,2022-02-04T05:21:51.7776871+00:00,2.58,CARRIERS,Carriers,0,0,EB33B5F2ACB64896AFB351FDE35717DF,Mastercard,"629,96",3
2022-08-22,v2793873lbll-01,Marketplace,,1,invoiced,Faturado,2022-01-25T05:21:39.3342237+00:00,2022-01-26T17:34:59.2808857+00:00,2022-01-25T05:21:46.3085033+00:00,2022-01-26T17:34:59.2340117+00:00,1858.94,-1228.98,0.0,0.0,51873,1,299.99,299.99,-180.0,LABELLAMAFIA,,0,,,0,,EMAIL,LINK,24/01 - 70% OFF,BRA,MG,Igarapé,Rua Vereador Ziquita,32900-000,5,0.0,8bd,2022-02-04T05:21:51.7776871+00:00,2.48,CARRIERS,Carriers,0,0,EB33B5F2ACB64896AFB351FDE35717DF,Mastercard,"629,96",3
2022-08-22,v2793868lbll-01,Marketplace,,1,invoiced,Faturado,2022-01-25T05:00:44.6035167+00:00,2022-01-26T15:14:00.5212877+00:00,2022-01-25T05:01:18.0000000+00:00,2022-01-26T15:14:00.2553475+00:00,169.99,-89.25,9.64,0.0,51732,1,169.99,169.99,-89.25,LABELLAMAFIA,,0,,,0,,,,,BRA,RJ,Niterói,Rua Francisco Nascimento,24342-795,0,9.64,7bd,2022-02-03T05:01:22.5040748+00:00,9.64,CARRIERS,Carriers,0,0,9C297D8301A3487DA0F5D5C898FEBD29,Pix,"90,38",1
2022-08-22,v2793866lbll-01,Marketplace,,1,invoiced,Faturado,2022-01-25T04:59:45.4594591+00:00,2022-01-26T16:28:56.8287744+00:00,2022-01-25T04:59:51.3612985+00:00,2022-01-26T16:28:56.7818637+00:00,1259.94,-1002.9,0.0,0.0,45486,1,129.99,129.99,-103.47,LABELLAMAFIA,,0,,,0,,social,,[LBM] [SUMMER SALE] [RMK] [13.01.2021],BRA,SP,Guarulhos,Rua Antônio Nakashima,07077-030,0,0.0,5bd,2022-02-01T04:59:56.5232313+00:00,1.41,CARRIERS,Carriers,0,0,ACBCCF43E05E4349807D93F253F60C12,Mastercard,"257,04",3
2022-08-22,v2793866lbll-01,Marketplace,,1,invoiced,Faturado,2022-01-25T04:59:45.4594591+00:00,2022-01-26T16:28:56.8287744+00:00,2022-01-25T04:59:51.3612985+00:00,2022-01-26T16:28:56.7818637+00:00,1259.94,-1002.9,0.0,0.0,47403,1,309.99,309.99,-246.75,LABELLAMAFIA,,0,,,0,,social,,[LBM] [SUMMER SALE] [RMK] [13.01.2021],BRA,SP,Guarulhos,Rua Antônio Nakashima,07077-030,1,0.0,5bd,2022-02-01T04:59:56.5232313+00:00,4.77,CARRIERS,Carriers,0,0,ACBCCF43E05E4349807D93F253F60C12,Mastercard,"257,04",3
2022-08-22,v2793866lbll-01,Marketplace,,1,invoiced,Faturado,2022-01-25T04:59:45.4594591+00:00,2022-01-26T16:28:56.8287744+00:00,2022-01-25T04:59:51.3612985+00:00,2022-01-26T16:28:56.7818637+00:00,1259.94,-1002.9,0.0,0.0,45518,1,189.99,189.99,-151.23,LABELLAMAFIA,,0,,,0,,social,,[LBM] [SUMMER SALE] [RMK] [13.01.2021],BRA,SP,Guarulhos,Rua Antônio Nakashima,07077-030,2,0.0,5bd,2022-02-01T04:59:56.5232313+00:00,2.38,CARRIERS,Carriers,0,0,ACBCCF43E05E4349807D93F253F60C12,Mastercard,"257,04",3
2022-08-22,v2793866lbll-01,Marketplace,,1,invoiced,Faturado,2022-01-25T04:59:45.4594591+00:00,2022-01-26T16:28:56.8287744+00:00,2022-01-25T04:59:51.3612985+00:00,2022-01-26T16:28:56.7818637+00:00,1259.94,-1002.9,0.0,0.0,49339,1,179.99,179.99,-143.27,LABELLAMAFIA,,0,,,0,,social,,[LBM] [SUMMER SALE] [RMK] [13.01.2021],BRA,SP,Guarulhos,Rua Antônio Nakashima,07077-030,3,0.0,5bd,2022-02-01T04:59:56.5232313+00:00,1.27,CARRIERS,Carriers,0,0,ACBCCF43E05E4349807D93F253F60C12,Mastercard,"257,04",3
2022-08-22,v2793866lbll-01,Marketplace,,1,invoiced,Faturado,2022-01-25T04:59:45.4594591+00:00,2022-01-26T16:28:56.8287744+00:00,2022-01-25T04:59:51.3612985+00:00,2022-01-26T16:28:56.7818637+00:00,1259.94,-1002.9,0.0,0.0,45522,1,179.99,179.99,-143.27,LABELLAMAFIA,,0,,,0,,social,,[LBM] [SUMMER SALE] [RMK] [13.01.2021],BRA,SP,Guarulhos,Rua Antônio Nakashima,07077-030,4,0.0,5bd,2022-02-01T04:59:56.5232313+00:00,1.54,CARRIERS,Carriers,0,0,ACBCCF43E05E4349807D93F253F60C12,Mastercard,"257,04",3
2022-08-22,v2793866lbll-01,Marketplace,,1,invoiced,Faturado,2022-01-25T04:59:45.4594591+00:00,2022-01-26T16:28:56.8287744+00:00,2022-01-25T04:59:51.3612985+00:00,2022-01-26T16:28:56.7818637+00:00,1259.94,-1002.9,0.0,0.0,49008,1,269.99,269.99,-214.91,LABELLAMAFIA,,0,,,0,,social,,[LBM] [SUMMER SALE] [RMK] [13.01.2021],BRA,SP,Guarulhos,Rua Antônio Nakashima,07077-030,5,0.0,5bd,2022-02-01T04:59:56.5232313+00:00,2.32,CARRIERS,Carriers,0,0,ACBCCF43E05E4349807D93F253F60C12,Mastercard,"257,04",3
2022-08-22,v2793863lbll-01,Marketplace,,3,invoiced,Faturado,2022-01-25T04:54:01.7545910+00:00,2022-01-26T14:25:59.0090225+00:00,2022-01-25T04:54:46.0000000+00:00,2022-01-26T14:25:58.5908276+00:00,299.98,-150.0,10.42,0.0,52751,1,154.99,154.99,-77.5,LAMAFIA,,0,,,0,,,,,BRA,RJ,Niterói,Rua Francisco Nascimento,24342-795,0,5.21,7bd,2022-02-03T04:54:50.3659625+00:00,5.21,CARRIERS,Carriers,0,0,11BA9BDD5C3D465BB51985AC95CA8A7B,Pix,"160,40",1
2022-08-22,v2793863lbll-01,Marketplace,,3,invoiced,Faturado,2022-01-25T04:54:01.7545910+00:00,2022-01-26T14:25:59.0090225+00:00,2022-01-25T04:54:46.0000000+00:00,2022-01-26T14:25:58.5908276+00:00,299.98,-150.0,10.42,0.0,52743,1,144.99,144.99,-72.5,LAMAFIA,,0,,,0,,,,,BRA,RJ,Niterói,Rua Francisco Nascimento,24342-795,1,5.21,7bd,2022-02-03T04:54:50.3659625+00:00,5.21,CARRIERS,Carriers,0,0,11BA9BDD5C3D465BB51985AC95CA8A7B,Pix,"160,40",1
2022-08-22,v2793857lbll-01,Marketplace,,1,invoiced,Faturado,2022-01-25T04:31:26.3513665+00:00,2022-01-26T14:31:57.4882637+00:00,2022-01-25T04:32:26.0000000+00:00,2022-01-26T14:31:56.8052740+00:00,174.99,-58.62,9.67,0.0,52288,1,174.99,174.99,-58.62,LABELLAMAFIA,,0,,,0,,,,,BRA,RJ,Rio de Janeiro,Raul pompeia,22743-051,0,9.67,7bd,2022-02-03T04:32:32.0143763+00:00,9.67,CARRIERS,Carriers,0,0,EF18BCFCA6EF4B8A87E7D91773C500AF,Pix,"126,04",1
2022-08-22,v2793854lbll-01,Marketplace,,1,canceled,Cancelado,2022-01-25T04:13:49.5008833+00:00,2022-01-25T15:34:34.4803935+00:00,2022-01-25T04:13:58.4799536+00:00,,2207.92,-1261.2,0.0,0.0,50705,1,382.99,382.99,-245.11999999999998,LABELLAMAFIA,,0,,,0,,STORIES,INSTAGRAM,24/01 -  DENIM,BRA,MT,Cuiabá,Avenida A,78050-392,0,0.0,10bd,,4.29,CARRIERS,Carriers,0,0,A2B62F6CE6844AAAB8014752F9C922CB,Visa,"946,72",6
2022-08-22,v2793854lbll-01,Marketplace,,1,canceled,Cancelado,2022-01-25T04:13:49.5008833+00:00,2022-01-25T15:34:34.4803935+00:00,2022-01-25T04:13:58.4799536+00:00,,2207.92,-1261.2,0.0,0.0,50910,1,189.99,189.99,-121.6,LABELLAMAFIA,,0,,,0,,STORIES,INSTAGRAM,24/01 -  DENIM,BRA,MT,Cuiabá,Avenida A,78050-392,1,0.0,10bd,,1.3,CARRIERS,Carriers,0,0,A2B62F6CE6844AAAB8014752F9C922CB,Visa,"946,72",6
2022-08-22,v2793854lbll-01,Marketplace,,1,canceled,Cancelado,2022-01-25T04:13:49.5008833+00:00,2022-01-25T15:34:34.4803935+00:00,2022-01-25T04:13:58.4799536+00:00,,2207.92,-1261.2,0.0,0.0,50928,1,429.99,429.99,-275.2,LABELLAMAFIA,,0,,,0,,STORIES,INSTAGRAM,24/01 -  DENIM,BRA,MT,Cuiabá,Avenida A,78050-392,2,0.0,10bd,,4.45,CARRIERS,Carriers,0,0,A2B62F6CE6844AAAB8014752F9C922CB,Visa,"946,72",6
2022-08-22,v2793854lbll-01,Marketplace,,1,canceled,Cancelado,2022-01-25T04:13:49.5008833+00:00,2022-01-25T15:34:34.4803935+00:00,2022-01-25T04:13:58.4799536+00:00,,2207.92,-1261.2,0.0,0.0,51622,1,149.99,149.99,-96.0,LABELLAMAFIA,,0,,,0,,STORIES,INSTAGRAM,24/01 -  DENIM,BRA,MT,Cuiabá,Avenida A,78050-392,3,0.0,10bd,,1.01,CARRIERS,Carriers,0,0,A2B62F6CE6844AAAB8014752F9C922CB,Visa,"946,72",6
2022-08-22,v2793854lbll-01,Marketplace,,1,canceled,Cancelado,2022-01-25T04:13:49.5008833+00:00,2022-01-25T15:34:34.4803935+00:00,2022-01-25T04:13:58.4799536+00:00,,2207.92,-1261.2,0.0,0.0,55628,1,309.99,309.99,-153.76,LABELLAMAFIA,,0,,,0,,STORIES,INSTAGRAM,24/01 -  DENIM,BRA,MT,Cuiabá,Avenida A,78050-392,4,0.0,10bd,,4.42,CARRIERS,Carriers,0,0,A2B62F6CE6844AAAB8014752F9C922CB,Visa,"946,72",6
2022-08-22,v2793854lbll-01,Marketplace,,1,canceled,Cancelado,2022-01-25T04:13:49.5008833+00:00,2022-01-25T15:34:34.4803935+00:00,2022-01-25T04:13:58.4799536+00:00,,2207.92,-1261.2,0.0,0.0,42654,1,249.99,249.99,-124.0,LABELLAMAFIA,,0,,,0,,STORIES,INSTAGRAM,24/01 -  DENIM,BRA,MT,Cuiabá,Avenida A,78050-392,5,0.0,10bd,,3.49,CARRIERS,Carriers,0,0,A2B62F6CE6844AAAB8014752F9C922CB,Visa,"946,72",6
2022-08-22,v2793854lbll-01,Marketplace,,1,canceled,Cancelado,2022-01-25T04:13:49.5008833+00:00,2022-01-25T15:34:34.4803935+00:00,2022-01-25T04:13:58.4799536+00:00,,2207.92,-1261.2,0.0,0.0,52332,1,234.99,234.99,-116.56,LABELLAMAFIA,,0,,,0,,STORIES,INSTAGRAM,24/01 -  DENIM,BRA,MT,Cuiabá,Avenida A,78050-392,6,0.0,10bd,,2.81,CARRIERS,Carriers,0,0,A2B62F6CE6844AAAB8014752F9C922CB,Visa,"946,72",6
2022-08-22,v2793854lbll-01,Marketplace,,1,canceled,Cancelado,2022-01-25T04:13:49.5008833+00:00,2022-01-25T15:34:34.4803935+00:00,2022-01-25T04:13:58.4799536+00:00,,2207.92,-1261.2,0.0,0.0,52307,1,259.99,259.99,-128.96,LABELLAMAFIA,,0,,,0,,STORIES,INSTAGRAM,24/01 -  DENIM,BRA,MT,Cuiabá,Avenida A,78050-392,7,0.0,10bd,,4.0,CARRIERS,Carriers,0,0,A2B62F6CE6844AAAB8014752F9C922CB,Visa,"946,72",6
